Compact smoothed stress field — compact_grid • tectonicr
…
    Value

sf object

    Examples

data("san_andreas")
res <- stress2grid(san_andreas)
compact_grid(res)
#> Simple feature collection with 40 features and 7 fields
#> Geometry type: POINT
#> Dimension:     XY
#> Bounding box:  xmin: -124.57 ymin: 24.33 xmax: -107.07 ymax: 39.33
#> Geodetic CRS:  WGS 84
#> # A tibble: 40 × 8
#>        R   lon   lat    azi    sd   mdr     N        geometry
#>    <dbl> <dbl> <dbl>  <dbl> <dbl> <dbl> <int>     <POINT [°]>
#>  1   200 -107.  24.3 178.   11.2  0.900    28 (-107.07 24.33)
#>  2   150 -107.  34.3  23.6   3.84 0.739     3 (-107.07 34.33)
#>  3   900 -107.  36.8  22.5  21.3  0.813   157 (-107.07 36.83)
#>  4   300 -107.  39.3 109.    9.40 0.759     5 (-107.07 39.33)
#>  5    50 -110.  24.3 162.   15.8  0.880     6 (-109.57 24.33)
#>  6   100 -110.  26.8 177.    6.20 0.841     4 (-109.57 26.83)
#>  7   250 -110.  29.3  26.3   7.65 0.807     3 (-109.57 29.33)
#>  8   150 -110.  31.8  24.1   8.00 0.606     4 (-109.57 31.83)
#>  9   600 -110.  34.3   9.44 22.3  0.795   115 (-109.57 34.33)
#> 10   200 -110.  36.8 124.   18.2  0.816     5 (-109.57 36.83)
#> # ℹ 30 more rows
…
