Adaptive Kernel Dispersion — kernel_dispersion • tectonicr
…
    Examples

data("nuvel1")
PoR <- subset(nuvel1, nuvel1$plate.rot == "na")
san_andreas_por <- san_andreas
san_andreas_por$azi <- PoR_shmax(san_andreas, PoR, "right")$azi.PoR
san_andreas_por$prd <- 135
kernel_dispersion(san_andreas_por)
#> Simple feature collection with 720 features and 6 fields
#> Geometry type: POINT
#> Dimension:     XY
#> Bounding box:  xmin: -124.57 ymin: 24.33 xmax: -107.07 ymax: 39.33
#> Geodetic CRS:  WGS 84
#> # A tibble: 720 × 7
#>      lon   lat    stat     R     N    mdr        geometry
#>  * <dbl> <dbl>   <dbl> <dbl> <int>  <dbl>     <POINT [°]>
#>  1 -115.  24.3 NA        100     0 NA     (-114.57 24.33)
#>  2 -115.  24.3 NA        200     1 NA     (-114.57 24.33)
#>  3 -115.  24.3  0.0144   300     3  0.683 (-114.57 24.33)
#>  4 -115.  24.3  0.0173   400     6  0.654 (-114.57 24.33)
#>  5 -115.  24.3  0.0561   500    90  0.896 (-114.57 24.33)
#>  6 -115.  24.3  0.0519   600   153  0.817 (-114.57 24.33)
#>  7 -115.  24.3  0.0557   700   183  0.737 (-114.57 24.33)
#>  8 -115.  24.3  0.0571   800   188  0.653 (-114.57 24.33)
#>  9 -115.  24.3  0.0576   900   203  0.608 (-114.57 24.33)
#> 10 -115.  24.3  0.0637  1000   228  0.590 (-114.57 24.33)
#> # ℹ 710 more rows
…
