Spatial interpolation of SHmax — stress2grid • tectonicr
…
    See also

    dist_greatcircle(), PoR_stress2grid(), compact_grid(),
circular_mean(), circular_median(), circular_sd(), circular_summary()

    Examples

data("san_andreas")
stress2grid(san_andreas, stat = "median")
#> Simple feature collection with 1070 features and 7 fields
#> Geometry type: POINT
#> Dimension:     XY
#> Bounding box:  xmin: -124.82 ymin: 24.08 xmax: -108.82 ymax: 40.08
#> Geodetic CRS:  WGS 84
#> # A tibble: 1,070 × 8
#>      lon   lat   azi    sd     R     N   mdr        geometry
#>  * <dbl> <dbl> <dbl> <dbl> <dbl> <int> <dbl>     <POINT [°]>
#>  1 -113.  24.1  141.   3.5   150     4 0.822 (-112.82 24.08)
#>  2 -113.  24.1  141.   3.5   200     4 0.617 (-112.82 24.08)
#>  3 -113.  24.1  147    3.5   250     7 0.679 (-112.82 24.08)
#>  4 -113.  24.1  163    0.5   300    17 0.779 (-112.82 24.08)
#>  5 -113.  24.1  163    0     350    73 0.879 (-112.82 24.08)
#>  6 -113.  24.1  165    0     400   127 0.840 (-112.82 24.08)
#>  7 -113.  24.1  168    0     450   161 0.786 (-112.82 24.08)
#>  8 -113.  24.1  168    0     500   169 0.718 (-112.82 24.08)
#>  9 -113.  24.1  168    0     550   177 0.667 (-112.82 24.08)
#> 10 -113.  24.1  168    0     600   182 0.621 (-112.82 24.08)
#> # ℹ 1,060 more rows
…
